....
----------------------------------------------------------------------
Ran 4 tests in 0.000s

OK
Name               Stmts   Miss Branch BrPart  Cover   Missing
--------------------------------------------------------------
Diplomacy.py          68      0     44      0   100%
TestDiplomacy.py      26      0      2      1    96%   55->exit
--------------------------------------------------------------
TOTAL                 94      0     46      1    99%
git clone https://gitlab.com/fareszf/cs330e-diplomacy-tests/
